-6277438562204192487878988888393020692503707483087375482269988814848.0 
-6277438562204192487878988888393020692503707483087375482269988814848.0 
-6277438562204192487878988888393020692503707483087375482269988814848.0 
-6277438562204192487878988888393020692503707483087375482269988814848.0 
-6277438562204192487878988888393020692503707483087375482269988814848.0 
-6277438562204192487878988888393020692503707483087375482269988814848.0 
-6277438562204192487878988888393020692503707483087375482269988814848.0 
-6277438562204192487878988888393020692503707483087375482269988814848.0 
-6277438562204192487878988888393020692503707483087375482269988814848.0 
-6277438562204192487878988888393020692503707483087375482269988814848.0 
-6277438562204192487878988888393020692503707483087375482269988814848.0 
-6277438562204192487878988888393020692503707483087375482269988814848.0 
-6277438562204192487878988888393020692503707483087375482269988814848.0 
-6277438562204192487878988888393020692503707483087375482269988814848.0 
-6277438562204192487878988888393020692503707483087375482269988814848.0 
-6277438562204192487878988888393020692503707483087375482269988814848.0 
-6277438562204192487878988888393020692503707483087375482269988814848.0 
-6277438562204192487878988888393020692503707483087375482269988814848.0 
-6277438562204192487878988888393020692503707483087375482269988814848.0 
-6277438562204192487878988888393020692503707483087375482269988814848.0 
-6277438562204192487878988888393020692503707483087375482269988814848.0 
-6277438562204192487878988888393020692503707483087375482269988814848.0 
-6277438562204192487878988888393020692503707483087375482269988814848.0 
-6277438562204192487878988888393020692503707483087375482269988814848.0 
-6277438562204192487878988888393020692503707483087375482269988814848.0 
-6277438562204192487878988888393020692503707483087375482269988814848.0 
-6277438562204192487878988888393020692503707483087375482269988814848.0 
-6277438562204192487878988888393020692503707483087375482269988814848.0 
-6277438562204192487878988888393020692503707483087375482269988814848.0 
-6277438562204192487878988888393020692503707483087375482269988814848.0 
-6277438562204192487878988888393020692503707483087375482269988814848.0 
-6277438562204192487878988888393020692503707483087375482269988814848.0 
-6277438562204192487878988888393020692503707483087375482269988814848.0 
-6277438562204192487878988888393020692503707483087375482269988814848.0 
-6277438562204192487878988888393020692503707483087375482269988814848.0 
-6277438562204192487878988888393020692503707483087375482269988814848.0 
-6277438562204192487878988888393020692503707483087375482269988814848.0 
-6277438562204192487878988888393020692503707483087375482269988814848.0 
-6277438562204192487878988888393020692503707483087375482269988814848.0 
-6277438562204192487878988888393020692503707483087375482269988814848.0 
-6277438562204192487878988888393020692503707483087375482269988814848.0 
-6277438562204192487878988888393020692503707483087375482269988814848.0 
-6277438562204192487878988888393020692503707483087375482269988814848.0 
-6277438562204192487878988888393020692503707483087375482269988814848.0 
-6277438562204192487878988888393020692503707483087375482269988814848.0 
-6277438562204192487878988888393020692503707483087375482269988814848.0 
-6277438562204192487878988888393020692503707483087375482269988814848.0 
-6277438562204192487878988888393020692503707483087375482269988814848.0 
-6277438562204192487878988888393020692503707483087375482269988814848.0 
-6277438562204192487878988888393020692503707483087375482269988814848.0 
-6277438562204192487878988888393020692503707483087375482269988814848.0 
-6277438562204192487878988888393020692503707483087375482269988814848.0 
-6277438562204192487878988888393020692503707483087375482269988814848.0 
-6277438562204192487878988888393020692503707483087375482269988814848.0 
-6277438562204192487878988888393020692503707483087375482269988814848.0 
-6277438562204192487878988888393020692503707483087375482269988814848.0 
-6277438562204192487878988888393020692503707483087375482269988814848.0 
-6277438562204192487878988888393020692503707483087375482269988814848.0 
-6277438562204192487878988888393020692503707483087375482269988814848.0 
-6277438562204192487878988888393020692503707483087375482269988814848.0 
-6277438562204192487878988888393020692503707483087375482269988814848.0 
-6277438562204192487878988888393020692503707483087375482269988814848.0 
-6277438562204192487878988888393020692503707483087375482269988814848.0 
-6277438562204192487878988888393020692503707483087375482269988814848.0 
-6277438562204192487878988888393020692503707483087375482269988814848.0 
-6277438562204192487878988888393020692503707483087375482269988814848.0 
-6277438562204192487878988888393020692503707483087375482269988814848.0 
-6277438562204192487878988888393020692503707483087375482269988814848.0 
-6277438562204192487878988888393020692503707483087375482269988814848.0 
-6277438562204192487878988888393020692503707483087375482269988814848.0 
-6277438562204192487878988888393020692503707483087375482269988814848.0 
-6277438562204192487878988888393020692503707483087375482269988814848.0 
-6277438562204192487878988888393020692503707483087375482269988814848.0 
-6277438562204192487878988888393020692503707483087375482269988814848.0 
-6277438562204192487878988888393020692503707483087375482269988814848.0 
-6277438562204192487878988888393020692503707483087375482269988814848.0 
-6277438562204192487878988888393020692503707483087375482269988814848.0 
-6277438562204192487878988888393020692503707483087375482269988814848.0 
-6277438562204192487878988888393020692503707483087375482269988814848.0 
-6277438562204192487878988888393020692503707483087375482269988814848.0 
-6277438562204192487878988888393020692503707483087375482269988814848.0 
-6277438562204192487878988888393020692503707483087375482269988814848.0 
-6277438562204192487878988888393020692503707483087375482269988814848.0 
-6277438562204192487878988888393020692503707483087375482269988814848.0 
-6277438562204192487878988888393020692503707483087375482269988814848.0 
-6277438562204192487878988888393020692503707483087375482269988814848.0 
-6277438562204192487878988888393020692503707483087375482269988814848.0 
-6277438562204192487878988888393020692503707483087375482269988814848.0 
-6277438562204192487878988888393020692503707483087375482269988814848.0 
-6277438562204192487878988888393020692503707483087375482269988814848.0 
-6277438562204192487878988888393020692503707483087375482269988814848.0 
-6277438562204192487878988888393020692503707483087375482269988814848.0 
-6277438562204192487878988888393020692503707483087375482269988814848.0 
-6277438562204192487878988888393020692503707483087375482269988814848.0 
-6277438562204192487878988888393020692503707483087375482269988814848.0 
-6277438562204192487878988888393020692503707483087375482269988814848.0 
-6277438562204192487878988888393020692503707483087375482269988814848.0 
-6277438562204192487878988888393020692503707483087375482269988814848.0 
-6277438562204192487878988888393020692503707483087375482269988814848.0 
-6277438562204192487878988888393020692503707483087375482269988814848.0 
-6277438562204192487878988888393020692503707483087375482269988814848.0 
-6277438562204192487878988888393020692503707483087375482269988814848.0 
-6277438562204192487878988888393020692503707483087375482269988814848.0 
-6277438562204192487878988888393020692503707483087375482269988814848.0 
-6277438562204192487878988888393020692503707483087375482269988814848.0 
-6277438562204192487878988888393020692503707483087375482269988814848.0 
-6277438562204192487878988888393020692503707483087375482269988814848.0 
-6277438562204192487878988888393020692503707483087375482269988814848.0 
-6277438562204192487878988888393020692503707483087375482269988814848.0 
-6277438562204192487878988888393020692503707483087375482269988814848.0 
-6277438562204192487878988888393020692503707483087375482269988814848.0 
-6277438562204192487878988888393020692503707483087375482269988814848.0 
-6277438562204192487878988888393020692503707483087375482269988814848.0 
-6277438562204192487878988888393020692503707483087375482269988814848.0 
-6277438562204192487878988888393020692503707483087375482269988814848.0 
-6277438562204192487878988888393020692503707483087375482269988814848.0 
-6277438562204192487878988888393020692503707483087375482269988814848.0 
-6277438562204192487878988888393020692503707483087375482269988814848.0 
-6277438562204192487878988888393020692503707483087375482269988814848.0 
-6277438562204192487878988888393020692503707483087375482269988814848.0 
-6277438562204192487878988888393020692503707483087375482269988814848.0 
-6277438562204192487878988888393020692503707483087375482269988814848.0 
-6277438562204192487878988888393020692503707483087375482269988814848.0 
-6277438562204192487878988888393020692503707483087375482269988814848.0 
-6277438562204192487878988888393020692503707483087375482269988814848.0 
-6277438562204192487878988888393020692503707483087375482269988814848.0 
-6277438562204192487878988888393020692503707483087375482269988814848.0 
-6277438562204192487878988888393020692503707483087375482269988814848.0 
-6277438562204192487878988888393020692503707483087375482269988814848.0 
-6277438562204192487878988888393020692503707483087375482269988814848.0 
-6277438562204192487878988888393020692503707483087375482269988814848.0 
-6277438562204192487878988888393020692503707483087375482269988814848.0 
-6277438562204192487878988888393020692503707483087375482269988814848.0 
-6277438562204192487878988888393020692503707483087375482269988814848.0 
-6277438562204192487878988888393020692503707483087375482269988814848.0 
-6277438562204192487878988888393020692503707483087375482269988814848.0 
-6277438562204192487878988888393020692503707483087375482269988814848.0 
-6277438562204192487878988888393020692503707483087375482269988814848.0 
-6277438562204192487878988888393020692503707483087375482269988814848.0 
-6277438562204192487878988888393020692503707483087375482269988814848.0 
-6277438562204192487878988888393020692503707483087375482269988814848.0 
-6277438562204192487878988888393020692503707483087375482269988814848.0 
-6277438562204192487878988888393020692503707483087375482269988814848.0 
-6277438562204192487878988888393020692503707483087375482269988814848.0 
-6277438562204192487878988888393020692503707483087375482269988814848.0 
-6277438562204192487878988888393020692503707483087375482269988814848.0 
-6277438562204192487878988888393020692503707483087375482269988814848.0 
-6277438562204192487878988888393020692503707483087375482269988814848.0 
-6277438562204192487878988888393020692503707483087375482269988814848.0 
-6277438562204192487878988888393020692503707483087375482269988814848.0 
-6277438562204192487878988888393020692503707483087375482269988814848.0 
-6277438562204192487878988888393020692503707483087375482269988814848.0 
-6277438562204192487878988888393020692503707483087375482269988814848.0 
-6277438562204192487878988888393020692503707483087375482269988814848.0 
-6277438562204192487878988888393020692503707483087375482269988814848.0 
-6277438562204192487878988888393020692503707483087375482269988814848.0 
-6277438562204192487878988888393020692503707483087375482269988814848.0 
-6277438562204192487878988888393020692503707483087375482269988814848.0 
-6277438562204192487878988888393020692503707483087375482269988814848.0 
-6277438562204192487878988888393020692503707483087375482269988814848.0 
-6277438562204192487878988888393020692503707483087375482269988814848.0 
-6277438562204192487878988888393020692503707483087375482269988814848.0 
-6277438562204192487878988888393020692503707483087375482269988814848.0 
-6277438562204192487878988888393020692503707483087375482269988814848.0 
-6277438562204192487878988888393020692503707483087375482269988814848.0 
-6277438562204192487878988888393020692503707483087375482269988814848.0 
-6277438562204192487878988888393020692503707483087375482269988814848.0 
-6277438562204192487878988888393020692503707483087375482269988814848.0 
-6277438562204192487878988888393020692503707483087375482269988814848.0 
-6277438562204192487878988888393020692503707483087375482269988814848.0 
-6277438562204192487878988888393020692503707483087375482269988814848.0 
-6277438562204192487878988888393020692503707483087375482269988814848.0 
-6277438562204192487878988888393020692503707483087375482269988814848.0 
-6277438562204192487878988888393020692503707483087375482269988814848.0 
-6277438562204192487878988888393020692503707483087375482269988814848.0 
-6277438562204192487878988888393020692503707483087375482269988814848.0 
-6277438562204192487878988888393020692503707483087375482269988814848.0 
-6277438562204192487878988888393020692503707483087375482269988814848.0 
-6277438562204192487878988888393020692503707483087375482269988814848.0 
-6277438562204192487878988888393020692503707483087375482269988814848.0 
-6277438562204192487878988888393020692503707483087375482269988814848.0 
-6277438562204192487878988888393020692503707483087375482269988814848.0 
-6277438562204192487878988888393020692503707483087375482269988814848.0 
-6277438562204192487878988888393020692503707483087375482269988814848.0 
-6277438562204192487878988888393020692503707483087375482269988814848.0 
-6277438562204192487878988888393020692503707483087375482269988814848.0 
-6277438562204192487878988888393020692503707483087375482269988814848.0 
-6277438562204192487878988888393020692503707483087375482269988814848.0 
-6277438562204192487878988888393020692503707483087375482269988814848.0 
-6277438562204192487878988888393020692503707483087375482269988814848.0 
-6277438562204192487878988888393020692503707483087375482269988814848.0 
-6277438562204192487878988888393020692503707483087375482269988814848.0 
-6277438562204192487878988888393020692503707483087375482269988814848.0 
-6277438562204192487878988888393020692503707483087375482269988814848.0 
-6277438562204192487878988888393020692503707483087375482269988814848.0 
-6277438562204192487878988888393020692503707483087375482269988814848.0 
-6277438562204192487878988888393020692503707483087375482269988814848.0 
-6277438562204192487878988888393020692503707483087375482269988814848.0 
-6277438562204192487878988888393020692503707483087375482269988814848.0 
-6277438562204192487878988888393020692503707483087375482269988814848.0 
-6277438562204192487878988888393020692503707483087375482269988814848.0 
-6277438562204192487878988888393020692503707483087375482269988814848.0 
-6277438562204192487878988888393020692503707483087375482269988814848.0 
-6277438562204192487878988888393020692503707483087375482269988814848.0 
-6277438562204192487878988888393020692503707483087375482269988814848.0 
-6277438562204192487878988888393020692503707483087375482269988814848.0 
-6277438562204192487878988888393020692503707483087375482269988814848.0 
-6277438562204192487878988888393020692503707483087375482269988814848.0 
-6277438562204192487878988888393020692503707483087375482269988814848.0 
-6277438562204192487878988888393020692503707483087375482269988814848.0 
-6277438562204192487878988888393020692503707483087375482269988814848.0 
-6277438562204192487878988888393020692503707483087375482269988814848.0 
-6277438562204192487878988888393020692503707483087375482269988814848.0 
-6277438562204192487878988888393020692503707483087375482269988814848.0 
-6277438562204192487878988888393020692503707483087375482269988814848.0 
-6277438562204192487878988888393020692503707483087375482269988814848.0 
-6277438562204192487878988888393020692503707483087375482269988814848.0 
-6277438562204192487878988888393020692503707483087375482269988814848.0 
-6277438562204192487878988888393020692503707483087375482269988814848.0 
-6277438562204192487878988888393020692503707483087375482269988814848.0 
-6277438562204192487878988888393020692503707483087375482269988814848.0 
-6277438562204192487878988888393020692503707483087375482269988814848.0 
-6277438562204192487878988888393020692503707483087375482269988814848.0 
-6277438562204192487878988888393020692503707483087375482269988814848.0 
-6277438562204192487878988888393020692503707483087375482269988814848.0 
-6277438562204192487878988888393020692503707483087375482269988814848.0 
-6277438562204192487878988888393020692503707483087375482269988814848.0 
-6277438562204192487878988888393020692503707483087375482269988814848.0 
-6277438562204192487878988888393020692503707483087375482269988814848.0 
-6277438562204192487878988888393020692503707483087375482269988814848.0 
-6277438562204192487878988888393020692503707483087375482269988814848.0 
-6277438562204192487878988888393020692503707483087375482269988814848.0 
-6277438562204192487878988888393020692503707483087375482269988814848.0 
-6277438562204192487878988888393020692503707483087375482269988814848.0 
-6277438562204192487878988888393020692503707483087375482269988814848.0 
-6277438562204192487878988888393020692503707483087375482269988814848.0 
-6277438562204192487878988888393020692503707483087375482269988814848.0 
-6277438562204192487878988888393020692503707483087375482269988814848.0 
-6277438562204192487878988888393020692503707483087375482269988814848.0 
-6277438562204192487878988888393020692503707483087375482269988814848.0 
-6277438562204192487878988888393020692503707483087375482269988814848.0 
-6277438562204192487878988888393020692503707483087375482269988814848.0 
-6277438562204192487878988888393020692503707483087375482269988814848.0 
-6277438562204192487878988888393020692503707483087375482269988814848.0 
-6277438562204192487878988888393020692503707483087375482269988814848.0 
-6277438562204192487878988888393020692503707483087375482269988814848.0 
-6277438562204192487878988888393020692503707483087375482269988814848.0 
-6277438562204192487878988888393020692503707483087375482269988814848.0 
-6277438562204192487878988888393020692503707483087375482269988814848.0 
-6277438562204192487878988888393020692503707483087375482269988814848.0 
-6277438562204192487878988888393020692503707483087375482269988814848.0 
-6277438562204192487878988888393020692503707483087375482269988814848.0 
-6277438562204192487878988888393020692503707483087375482269988814848.0 
-6277438562204192487878988888393020692503707483087375482269988814848.0 
-6277438562204192487878988888393020692503707483087375482269988814848.0 
-6277438562204192487878988888393020692503707483087375482269988814848.0 
-6277438562204192487878988888393020692503707483087375482269988814848.0 
-6277438562204192487878988888393020692503707483087375482269988814848.0 
-6277438562204192487878988888393020692503707483087375482269988814848.0 
-6277438562204192487878988888393020692503707483087375482269988814848.0 
-6277438562204192487878988888393020692503707483087375482269988814848.0 
-6277438562204192487878988888393020692503707483087375482269988814848.0 
-6277438562204192487878988888393020692503707483087375482269988814848.0 
-6277438562204192487878988888393020692503707483087375482269988814848.0 
-6277438562204192487878988888393020692503707483087375482269988814848.0 
-6277438562204192487878988888393020692503707483087375482269988814848.0 
-6277438562204192487878988888393020692503707483087375482269988814848.0 
-6277438562204192487878988888393020692503707483087375482269988814848.0 
-6277438562204192487878988888393020692503707483087375482269988814848.0 
-6277438562204192487878988888393020692503707483087375482269988814848.0 
-6277438562204192487878988888393020692503707483087375482269988814848.0 
-6277438562204192487878988888393020692503707483087375482269988814848.0 
-6277438562204192487878988888393020692503707483087375482269988814848.0 
-6277438562204192487878988888393020692503707483087375482269988814848.0 
-6277438562204192487878988888393020692503707483087375482269988814848.0 
-6277438562204192487878988888393020692503707483087375482269988814848.0 
-6277438562204192487878988888393020692503707483087375482269988814848.0 
-6277438562204192487878988888393020692503707483087375482269988814848.0 
-6277438562204192487878988888393020692503707483087375482269988814848.0 
-6277438562204192487878988888393020692503707483087375482269988814848.0 
-6277438562204192487878988888393020692503707483087375482269988814848.0 
-6277438562204192487878988888393020692503707483087375482269988814848.0 
-6277438562204192487878988888393020692503707483087375482269988814848.0 
-6277438562204192487878988888393020692503707483087375482269988814848.0 
-6277438562204192487878988888393020692503707483087375482269988814848.0 
-6277438562204192487878988888393020692503707483087375482269988814848.0 
-6277438562204192487878988888393020692503707483087375482269988814848.0 
-6277438562204192487878988888393020692503707483087375482269988814848.0 
-6277438562204192487878988888393020692503707483087375482269988814848.0 
-6277438562204192487878988888393020692503707483087375482269988814848.0 
-6277438562204192487878988888393020692503707483087375482269988814848.0 
-6277438562204192487878988888393020692503707483087375482269988814848.0 
-6277438562204192487878988888393020692503707483087375482269988814848.0 
-6277438562204192487878988888393020692503707483087375482269988814848.0 
-6277438562204192487878988888393020692503707483087375482269988814848.0 
-6277438562204192487878988888393020692503707483087375482269988814848.0 
-6277438562204192487878988888393020692503707483087375482269988814848.0 
-6277438562204192487878988888393020692503707483087375482269988814848.0 
-6277438562204192487878988888393020692503707483087375482269988814848.0 
-6277438562204192487878988888393020692503707483087375482269988814848.0 
-6277438562204192487878988888393020692503707483087375482269988814848.0 
-6277438562204192487878988888393020692503707483087375482269988814848.0 
-6277438562204192487878988888393020692503707483087375482269988814848.0 
-6277438562204192487878988888393020692503707483087375482269988814848.0 
-6277438562204192487878988888393020692503707483087375482269988814848.0 
-6277438562204192487878988888393020692503707483087375482269988814848.0 
-6277438562204192487878988888393020692503707483087375482269988814848.0 
-6277438562204192487878988888393020692503707483087375482269988814848.0 
-6277438562204192487878988888393020692503707483087375482269988814848.0 
-6277438562204192487878988888393020692503707483087375482269988814848.0 
-6277438562204192487878988888393020692503707483087375482269988814848.0 
-6277438562204192487878988888393020692503707483087375482269988814848.0 
-6277438562204192487878988888393020692503707483087375482269988814848.0 
-6277438562204192487878988888393020692503707483087375482269988814848.0 
-6277438562204192487878988888393020692503707483087375482269988814848.0 
-6277438562204192487878988888393020692503707483087375482269988814848.0 
-6277438562204192487878988888393020692503707483087375482269988814848.0 
-6277438562204192487878988888393020692503707483087375482269988814848.0 
-6277438562204192487878988888393020692503707483087375482269988814848.0 
-6277438562204192487878988888393020692503707483087375482269988814848.0 
-6277438562204192487878988888393020692503707483087375482269988814848.0 
-6277438562204192487878988888393020692503707483087375482269988814848.0 
-6277438562204192487878988888393020692503707483087375482269988814848.0 
-6277438562204192487878988888393020692503707483087375482269988814848.0 
-6277438562204192487878988888393020692503707483087375482269988814848.0 
-6277438562204192487878988888393020692503707483087375482269988814848.0 
-6277438562204192487878988888393020692503707483087375482269988814848.0 
-6277438562204192487878988888393020692503707483087375482269988814848.0 
-6277438562204192487878988888393020692503707483087375482269988814848.0 
-6277438562204192487878988888393020692503707483087375482269988814848.0 
-6277438562204192487878988888393020692503707483087375482269988814848.0 
-6277438562204192487878988888393020692503707483087375482269988814848.0 
-6277438562204192487878988888393020692503707483087375482269988814848.0 
-6277438562204192487878988888393020692503707483087375482269988814848.0 
-6277438562204192487878988888393020692503707483087375482269988814848.0 
-6277438562204192487878988888393020692503707483087375482269988814848.0 
-6277438562204192487878988888393020692503707483087375482269988814848.0 
-6277438562204192487878988888393020692503707483087375482269988814848.0 
-6277438562204192487878988888393020692503707483087375482269988814848.0 
-6277438562204192487878988888393020692503707483087375482269988814848.0 
-6277438562204192487878988888393020692503707483087375482269988814848.0 
-6277438562204192487878988888393020692503707483087375482269988814848.0 
-6277438562204192487878988888393020692503707483087375482269988814848.0 
-6277438562204192487878988888393020692503707483087375482269988814848.0 
-6277438562204192487878988888393020692503707483087375482269988814848.0 
-6277438562204192487878988888393020692503707483087375482269988814848.0 
-6277438562204192487878988888393020692503707483087375482269988814848.0 
-6277438562204192487878988888393020692503707483087375482269988814848.0 
-6277438562204192487878988888393020692503707483087375482269988814848.0 
-6277438562204192487878988888393020692503707483087375482269988814848.0 
-6277438562204192487878988888393020692503707483087375482269988814848.0 
-6277438562204192487878988888393020692503707483087375482269988814848.0 
-6277438562204192487878988888393020692503707483087375482269988814848.0 
-6277438562204192487878988888393020692503707483087375482269988814848.0 
-6277438562204192487878988888393020692503707483087375482269988814848.0 
-6277438562204192487878988888393020692503707483087375482269988814848.0 
-6277438562204192487878988888393020692503707483087375482269988814848.0 
-6277438562204192487878988888393020692503707483087375482269988814848.0 
-6277438562204192487878988888393020692503707483087375482269988814848.0 
-6277438562204192487878988888393020692503707483087375482269988814848.0 
-6277438562204192487878988888393020692503707483087375482269988814848.0 
-6277438562204192487878988888393020692503707483087375482269988814848.0 
-6277438562204192487878988888393020692503707483087375482269988814848.0 
-6277438562204192487878988888393020692503707483087375482269988814848.0 
-6277438562204192487878988888393020692503707483087375482269988814848.0 
-6277438562204192487878988888393020692503707483087375482269988814848.0 
-6277438562204192487878988888393020692503707483087375482269988814848.0 
-6277438562204192487878988888393020692503707483087375482269988814848.0 
-6277438562204192487878988888393020692503707483087375482269988814848.0 
-6277438562204192487878988888393020692503707483087375482269988814848.0 
-6277438562204192487878988888393020692503707483087375482269988814848.0 
-6277438562204192487878988888393020692503707483087375482269988814848.0 
-6277438562204192487878988888393020692503707483087375482269988814848.0 
-6277438562204192487878988888393020692503707483087375482269988814848.0 
-6277438562204192487878988888393020692503707483087375482269988814848.0 
-6277438562204192487878988888393020692503707483087375482269988814848.0 
-6277438562204192487878988888393020692503707483087375482269988814848.0 
-6277438562204192487878988888393020692503707483087375482269988814848.0 
-6277438562204192487878988888393020692503707483087375482269988814848.0 
-6277438562204192487878988888393020692503707483087375482269988814848.0 
-6277438562204192487878988888393020692503707483087375482269988814848.0 
-6277438562204192487878988888393020692503707483087375482269988814848.0 
-6277438562204192487878988888393020692503707483087375482269988814848.0 
-6277438562204192487878988888393020692503707483087375482269988814848.0 
-6277438562204192487878988888393020692503707483087375482269988814848.0 
-6277438562204192487878988888393020692503707483087375482269988814848.0 
-6277438562204192487878988888393020692503707483087375482269988814848.0 
-6277438562204192487878988888393020692503707483087375482269988814848.0 
-6277438562204192487878988888393020692503707483087375482269988814848.0 
-6277438562204192487878988888393020692503707483087375482269988814848.0 
-6277438562204192487878988888393020692503707483087375482269988814848.0 
-6277438562204192487878988888393020692503707483087375482269988814848.0 
-6277438562204192487878988888393020692503707483087375482269988814848.0 
-6277438562204192487878988888393020692503707483087375482269988814848.0 
-6277438562204192487878988888393020692503707483087375482269988814848.0 
-6277438562204192487878988888393020692503707483087375482269988814848.0 
-6277438562204192487878988888393020692503707483087375482269988814848.0 
-6277438562204192487878988888393020692503707483087375482269988814848.0 
-6277438562204192487878988888393020692503707483087375482269988814848.0 
-6277438562204192487878988888393020692503707483087375482269988814848.0 
-6277438562204192487878988888393020692503707483087375482269988814848.0 
-6277438562204192487878988888393020692503707483087375482269988814848.0 
-6277438562204192487878988888393020692503707483087375482269988814848.0 
-6277438562204192487878988888393020692503707483087375482269988814848.0 
-6277438562204192487878988888393020692503707483087375482269988814848.0 
-6277438562204192487878988888393020692503707483087375482269988814848.0 
-6277438562204192487878988888393020692503707483087375482269988814848.0 
-6277438562204192487878988888393020692503707483087375482269988814848.0 
-6277438562204192487878988888393020692503707483087375482269988814848.0 
-6277438562204192487878988888393020692503707483087375482269988814848.0 
-6277438562204192487878988888393020692503707483087375482269988814848.0 
-6277438562204192487878988888393020692503707483087375482269988814848.0 
-6277438562204192487878988888393020692503707483087375482269988814848.0 
-6277438562204192487878988888393020692503707483087375482269988814848.0 
-6277438562204192487878988888393020692503707483087375482269988814848.0 
-6277438562204192487878988888393020692503707483087375482269988814848.0 
-6277438562204192487878988888393020692503707483087375482269988814848.0 
-6277438562204192487878988888393020692503707483087375482269988814848.0 
-6277438562204192487878988888393020692503707483087375482269988814848.0 
-6277438562204192487878988888393020692503707483087375482269988814848.0 
-6277438562204192487878988888393020692503707483087375482269988814848.0 
-6277438562204192487878988888393020692503707483087375482269988814848.0 
-6277438562204192487878988888393020692503707483087375482269988814848.0 
-6277438562204192487878988888393020692503707483087375482269988814848.0 
-6277438562204192487878988888393020692503707483087375482269988814848.0 
-6277438562204192487878988888393020692503707483087375482269988814848.0 
-6277438562204192487878988888393020692503707483087375482269988814848.0 
-6277438562204192487878988888393020692503707483087375482269988814848.0 
-6277438562204192487878988888393020692503707483087375482269988814848.0 
-6277438562204192487878988888393020692503707483087375482269988814848.0 
-6277438562204192487878988888393020692503707483087375482269988814848.0 
-6277438562204192487878988888393020692503707483087375482269988814848.0 
-6277438562204192487878988888393020692503707483087375482269988814848.0 
-6277438562204192487878988888393020692503707483087375482269988814848.0 
-6277438562204192487878988888393020692503707483087375482269988814848.0 
-6277438562204192487878988888393020692503707483087375482269988814848.0 
-6277438562204192487878988888393020692503707483087375482269988814848.0 
-6277438562204192487878988888393020692503707483087375482269988814848.0 
-6277438562204192487878988888393020692503707483087375482269988814848.0 
-6277438562204192487878988888393020692503707483087375482269988814848.0 
-6277438562204192487878988888393020692503707483087375482269988814848.0 
-6277438562204192487878988888393020692503707483087375482269988814848.0 
-6277438562204192487878988888393020692503707483087375482269988814848.0 
-6277438562204192487878988888393020692503707483087375482269988814848.0 
-6277438562204192487878988888393020692503707483087375482269988814848.0 
-6277438562204192487878988888393020692503707483087375482269988814848.0 
-6277438562204192487878988888393020692503707483087375482269988814848.0 
-6277438562204192487878988888393020692503707483087375482269988814848.0 
-6277438562204192487878988888393020692503707483087375482269988814848.0 
-6277438562204192487878988888393020692503707483087375482269988814848.0 
-6277438562204192487878988888393020692503707483087375482269988814848.0 
-6277438562204192487878988888393020692503707483087375482269988814848.0 
-6277438562204192487878988888393020692503707483087375482269988814848.0 
-6277438562204192487878988888393020692503707483087375482269988814848.0 
-6277438562204192487878988888393020692503707483087375482269988814848.0 
-6277438562204192487878988888393020692503707483087375482269988814848.0 
-6277438562204192487878988888393020692503707483087375482269988814848.0 
-6277438562204192487878988888393020692503707483087375482269988814848.0 
-6277438562204192487878988888393020692503707483087375482269988814848.0 
-6277438562204192487878988888393020692503707483087375482269988814848.0 
-6277438562204192487878988888393020692503707483087375482269988814848.0 
-6277438562204192487878988888393020692503707483087375482269988814848.0 
-6277438562204192487878988888393020692503707483087375482269988814848.0 
-6277438562204192487878988888393020692503707483087375482269988814848.0 
-6277438562204192487878988888393020692503707483087375482269988814848.0 
-6277438562204192487878988888393020692503707483087375482269988814848.0 
-6277438562204192487878988888393020692503707483087375482269988814848.0 
-6277438562204192487878988888393020692503707483087375482269988814848.0 
-6277438562204192487878988888393020692503707483087375482269988814848.0 
-6277438562204192487878988888393020692503707483087375482269988814848.0 
-6277438562204192487878988888393020692503707483087375482269988814848.0 
-6277438562204192487878988888393020692503707483087375482269988814848.0 
-6277438562204192487878988888393020692503707483087375482269988814848.0 
-6277438562204192487878988888393020692503707483087375482269988814848.0 
-6277438562204192487878988888393020692503707483087375482269988814848.0 
-6277438562204192487878988888393020692503707483087375482269988814848.0 
-6277438562204192487878988888393020692503707483087375482269988814848.0 
-6277438562204192487878988888393020692503707483087375482269988814848.0 
-6277438562204192487878988888393020692503707483087375482269988814848.0 
-6277438562204192487878988888393020692503707483087375482269988814848.0 
-6277438562204192487878988888393020692503707483087375482269988814848.0 
-6277438562204192487878988888393020692503707483087375482269988814848.0 
-6277438562204192487878988888393020692503707483087375482269988814848.0 
-6277438562204192487878988888393020692503707483087375482269988814848.0 
-6277438562204192487878988888393020692503707483087375482269988814848.0 
-6277438562204192487878988888393020692503707483087375482269988814848.0 
-6277438562204192487878988888393020692503707483087375482269988814848.0 
-6277438562204192487878988888393020692503707483087375482269988814848.0 
-6277438562204192487878988888393020692503707483087375482269988814848.0 
-6277438562204192487878988888393020692503707483087375482269988814848.0 
-6277438562204192487878988888393020692503707483087375482269988814848.0 
-6277438562204192487878988888393020692503707483087375482269988814848.0 
-6277438562204192487878988888393020692503707483087375482269988814848.0 
-6277438562204192487878988888393020692503707483087375482269988814848.0 
-6277438562204192487878988888393020692503707483087375482269988814848.0 
-6277438562204192487878988888393020692503707483087375482269988814848.0 
-6277438562204192487878988888393020692503707483087375482269988814848.0 
-6277438562204192487878988888393020692503707483087375482269988814848.0 
-6277438562204192487878988888393020692503707483087375482269988814848.0 
-6277438562204192487878988888393020692503707483087375482269988814848.0 
-6277438562204192487878988888393020692503707483087375482269988814848.0 
-6277438562204192487878988888393020692503707483087375482269988814848.0 
-6277438562204192487878988888393020692503707483087375482269988814848.0 
-6277438562204192487878988888393020692503707483087375482269988814848.0 
-6277438562204192487878988888393020692503707483087375482269988814848.0 
-6277438562204192487878988888393020692503707483087375482269988814848.0 
-6277438562204192487878988888393020692503707483087375482269988814848.0 
-6277438562204192487878988888393020692503707483087375482269988814848.0 
-6277438562204192487878988888393020692503707483087375482269988814848.0 
-6277438562204192487878988888393020692503707483087375482269988814848.0 
-6277438562204192487878988888393020692503707483087375482269988814848.0 
-6277438562204192487878988888393020692503707483087375482269988814848.0 
-6277438562204192487878988888393020692503707483087375482269988814848.0 
-6277438562204192487878988888393020692503707483087375482269988814848.0 
-6277438562204192487878988888393020692503707483087375482269988814848.0 
-6277438562204192487878988888393020692503707483087375482269988814848.0 
-6277438562204192487878988888393020692503707483087375482269988814848.0 
-6277438562204192487878988888393020692503707483087375482269988814848.0 
-6277438562204192487878988888393020692503707483087375482269988814848.0 
-6277438562204192487878988888393020692503707483087375482269988814848.0 
-6277438562204192487878988888393020692503707483087375482269988814848.0 
-6277438562204192487878988888393020692503707483087375482269988814848.0 
-6277438562204192487878988888393020692503707483087375482269988814848.0 
-6277438562204192487878988888393020692503707483087375482269988814848.0 
-6277438562204192487878988888393020692503707483087375482269988814848.0 
-6277438562204192487878988888393020692503707483087375482269988814848.0 
-6277438562204192487878988888393020692503707483087375482269988814848.0 
-6277438562204192487878988888393020692503707483087375482269988814848.0 
-6277438562204192487878988888393020692503707483087375482269988814848.0 
-6277438562204192487878988888393020692503707483087375482269988814848.0 
-6277438562204192487878988888393020692503707483087375482269988814848.0 
-6277438562204192487878988888393020692503707483087375482269988814848.0 
-6277438562204192487878988888393020692503707483087375482269988814848.0 
-6277438562204192487878988888393020692503707483087375482269988814848.0 
-6277438562204192487878988888393020692503707483087375482269988814848.0 
-6277438562204192487878988888393020692503707483087375482269988814848.0 
-6277438562204192487878988888393020692503707483087375482269988814848.0 
-6277438562204192487878988888393020692503707483087375482269988814848.0 
-6277438562204192487878988888393020692503707483087375482269988814848.0 
-6277438562204192487878988888393020692503707483087375482269988814848.0 
-6277438562204192487878988888393020692503707483087375482269988814848.0 
-6277438562204192487878988888393020692503707483087375482269988814848.0 
-6277438562204192487878988888393020692503707483087375482269988814848.0 
-6277438562204192487878988888393020692503707483087375482269988814848.0 
-6277438562204192487878988888393020692503707483087375482269988814848.0 
-6277438562204192487878988888393020692503707483087375482269988814848.0 
-6277438562204192487878988888393020692503707483087375482269988814848.0 
-6277438562204192487878988888393020692503707483087375482269988814848.0 
-6277438562204192487878988888393020692503707483087375482269988814848.0 
-6277438562204192487878988888393020692503707483087375482269988814848.0 
-6277438562204192487878988888393020692503707483087375482269988814848.0 
-6277438562204192487878988888393020692503707483087375482269988814848.0 
-6277438562204192487878988888393020692503707483087375482269988814848.0 
-6277438562204192487878988888393020692503707483087375482269988814848.0 
-6277438562204192487878988888393020692503707483087375482269988814848.0 
-6277438562204192487878988888393020692503707483087375482269988814848.0 
-6277438562204192487878988888393020692503707483087375482269988814848.0 
-6277438562204192487878988888393020692503707483087375482269988814848.0 
-6277438562204192487878988888393020692503707483087375482269988814848.0 
-6277438562204192487878988888393020692503707483087375482269988814848.0 
-6277438562204192487878988888393020692503707483087375482269988814848.0 
-6277438562204192487878988888393020692503707483087375482269988814848.0 
-6277438562204192487878988888393020692503707483087375482269988814848.0 
-6277438562204192487878988888393020692503707483087375482269988814848.0 
-6277438562204192487878988888393020692503707483087375482269988814848.0 
-6277438562204192487878988888393020692503707483087375482269988814848.0 
-6277438562204192487878988888393020692503707483087375482269988814848.0 
-6277438562204192487878988888393020692503707483087375482269988814848.0 
-6277438562204192487878988888393020692503707483087375482269988814848.0 
-6277438562204192487878988888393020692503707483087375482269988814848.0 
-6277438562204192487878988888393020692503707483087375482269988814848.0 
-6277438562204192487878988888393020692503707483087375482269988814848.0 
-6277438562204192487878988888393020692503707483087375482269988814848.0 
-6277438562204192487878988888393020692503707483087375482269988814848.0 
-6277438562204192487878988888393020692503707483087375482269988814848.0 
-6277438562204192487878988888393020692503707483087375482269988814848.0 
-6277438562204192487878988888393020692503707483087375482269988814848.0 
-6277438562204192487878988888393020692503707483087375482269988814848.0 
-6277438562204192487878988888393020692503707483087375482269988814848.0 
-6277438562204192487878988888393020692503707483087375482269988814848.0 
-6277438562204192487878988888393020692503707483087375482269988814848.0 
-6277438562204192487878988888393020692503707483087375482269988814848.0 
-6277438562204192487878988888393020692503707483087375482269988814848.0 
-6277438562204192487878988888393020692503707483087375482269988814848.0 
-6277438562204192487878988888393020692503707483087375482269988814848.0 
-6277438562204192487878988888393020692503707483087375482269988814848.0 
-6277438562204192487878988888393020692503707483087375482269988814848.0 
-6277438562204192487878988888393020692503707483087375482269988814848.0 
-6277438562204192487878988888393020692503707483087375482269988814848.0 
-6277438562204192487878988888393020692503707483087375482269988814848.0 
-6277438562204192487878988888393020692503707483087375482269988814848.0 
-6277438562204192487878988888393020692503707483087375482269988814848.0 
-6277438562204192487878988888393020692503707483087375482269988814848.0 
-6277438562204192487878988888393020692503707483087375482269988814848.0 
-6277438562204192487878988888393020692503707483087375482269988814848.0 
-6277438562204192487878988888393020692503707483087375482269988814848.0 
-6277438562204192487878988888393020692503707483087375482269988814848.0 
-6277438562204192487878988888393020692503707483087375482269988814848.0 
-6277438562204192487878988888393020692503707483087375482269988814848.0 
-6277438562204192487878988888393020692503707483087375482269988814848.0 
-6277438562204192487878988888393020692503707483087375482269988814848.0 
-6277438562204192487878988888393020692503707483087375482269988814848.0 
-6277438562204192487878988888393020692503707483087375482269988814848.0 
-6277438562204192487878988888393020692503707483087375482269988814848.0 
-6277438562204192487878988888393020692503707483087375482269988814848.0 
-6277438562204192487878988888393020692503707483087375482269988814848.0 
-6277438562204192487878988888393020692503707483087375482269988814848.0 
-6277438562204192487878988888393020692503707483087375482269988814848.0 
-6277438562204192487878988888393020692503707483087375482269988814848.0 
-6277438562204192487878988888393020692503707483087375482269988814848.0 
-6277438562204192487878988888393020692503707483087375482269988814848.0 
-6277438562204192487878988888393020692503707483087375482269988814848.0 
-6277438562204192487878988888393020692503707483087375482269988814848.0 
-6277438562204192487878988888393020692503707483087375482269988814848.0 
-6277438562204192487878988888393020692503707483087375482269988814848.0 
-6277438562204192487878988888393020692503707483087375482269988814848.0 
-6277438562204192487878988888393020692503707483087375482269988814848.0 
-6277438562204192487878988888393020692503707483087375482269988814848.0 
-6277438562204192487878988888393020692503707483087375482269988814848.0 
-6277438562204192487878988888393020692503707483087375482269988814848.0 
-6277438562204192487878988888393020692503707483087375482269988814848.0 
-6277438562204192487878988888393020692503707483087375482269988814848.0 
-6277438562204192487878988888393020692503707483087375482269988814848.0 
-6277438562204192487878988888393020692503707483087375482269988814848.0 
-6277438562204192487878988888393020692503707483087375482269988814848.0 
-6277438562204192487878988888393020692503707483087375482269988814848.0 
-6277438562204192487878988888393020692503707483087375482269988814848.0 
-6277438562204192487878988888393020692503707483087375482269988814848.0 
-6277438562204192487878988888393020692503707483087375482269988814848.0 
-6277438562204192487878988888393020692503707483087375482269988814848.0 
-6277438562204192487878988888393020692503707483087375482269988814848.0 
-6277438562204192487878988888393020692503707483087375482269988814848.0 
-6277438562204192487878988888393020692503707483087375482269988814848.0 
-6277438562204192487878988888393020692503707483087375482269988814848.0 
-6277438562204192487878988888393020692503707483087375482269988814848.0 
-6277438562204192487878988888393020692503707483087375482269988814848.0 
-6277438562204192487878988888393020692503707483087375482269988814848.0 
-6277438562204192487878988888393020692503707483087375482269988814848.0 
-6277438562204192487878988888393020692503707483087375482269988814848.0 
-6277438562204192487878988888393020692503707483087375482269988814848.0 
-6277438562204192487878988888393020692503707483087375482269988814848.0 
-6277438562204192487878988888393020692503707483087375482269988814848.0 
-6277438562204192487878988888393020692503707483087375482269988814848.0 
-6277438562204192487878988888393020692503707483087375482269988814848.0 
-6277438562204192487878988888393020692503707483087375482269988814848.0 
-6277438562204192487878988888393020692503707483087375482269988814848.0 
-6277438562204192487878988888393020692503707483087375482269988814848.0 
-6277438562204192487878988888393020692503707483087375482269988814848.0 
-6277438562204192487878988888393020692503707483087375482269988814848.0 
-6277438562204192487878988888393020692503707483087375482269988814848.0 
-6277438562204192487878988888393020692503707483087375482269988814848.0 
-6277438562204192487878988888393020692503707483087375482269988814848.0 
-6277438562204192487878988888393020692503707483087375482269988814848.0 
-6277438562204192487878988888393020692503707483087375482269988814848.0 
-6277438562204192487878988888393020692503707483087375482269988814848.0 
-6277438562204192487878988888393020692503707483087375482269988814848.0 
-6277438562204192487878988888393020692503707483087375482269988814848.0 
-6277438562204192487878988888393020692503707483087375482269988814848.0 
-6277438562204192487878988888393020692503707483087375482269988814848.0 
-6277438562204192487878988888393020692503707483087375482269988814848.0 
-6277438562204192487878988888393020692503707483087375482269988814848.0 
-6277438562204192487878988888393020692503707483087375482269988814848.0 
-6277438562204192487878988888393020692503707483087375482269988814848.0 
-6277438562204192487878988888393020692503707483087375482269988814848.0 
-6277438562204192487878988888393020692503707483087375482269988814848.0 
-6277438562204192487878988888393020692503707483087375482269988814848.0 
-6277438562204192487878988888393020692503707483087375482269988814848.0 
-6277438562204192487878988888393020692503707483087375482269988814848.0 
-6277438562204192487878988888393020692503707483087375482269988814848.0 
-6277438562204192487878988888393020692503707483087375482269988814848.0 
-6277438562204192487878988888393020692503707483087375482269988814848.0 
-6277438562204192487878988888393020692503707483087375482269988814848.0 
-6277438562204192487878988888393020692503707483087375482269988814848.0 
-6277438562204192487878988888393020692503707483087375482269988814848.0 
-6277438562204192487878988888393020692503707483087375482269988814848.0 
-6277438562204192487878988888393020692503707483087375482269988814848.0 
-6277438562204192487878988888393020692503707483087375482269988814848.0 
-6277438562204192487878988888393020692503707483087375482269988814848.0 
-6277438562204192487878988888393020692503707483087375482269988814848.0 
-6277438562204192487878988888393020692503707483087375482269988814848.0 
-6277438562204192487878988888393020692503707483087375482269988814848.0 
-6277438562204192487878988888393020692503707483087375482269988814848.0 
-6277438562204192487878988888393020692503707483087375482269988814848.0 
-6277438562204192487878988888393020692503707483087375482269988814848.0 
-6277438562204192487878988888393020692503707483087375482269988814848.0 
-6277438562204192487878988888393020692503707483087375482269988814848.0 
-6277438562204192487878988888393020692503707483087375482269988814848.0 
-6277438562204192487878988888393020692503707483087375482269988814848.0 
-6277438562204192487878988888393020692503707483087375482269988814848.0 
-6277438562204192487878988888393020692503707483087375482269988814848.0 
-6277438562204192487878988888393020692503707483087375482269988814848.0 
-6277438562204192487878988888393020692503707483087375482269988814848.0 
-6277438562204192487878988888393020692503707483087375482269988814848.0 
-6277438562204192487878988888393020692503707483087375482269988814848.0 
-6277438562204192487878988888393020692503707483087375482269988814848.0 
-6277438562204192487878988888393020692503707483087375482269988814848.0 
-6277438562204192487878988888393020692503707483087375482269988814848.0 
-6277438562204192487878988888393020692503707483087375482269988814848.0 
-6277438562204192487878988888393020692503707483087375482269988814848.0 
-6277438562204192487878988888393020692503707483087375482269988814848.0 
-6277438562204192487878988888393020692503707483087375482269988814848.0 
-6277438562204192487878988888393020692503707483087375482269988814848.0 
-6277438562204192487878988888393020692503707483087375482269988814848.0 
-6277438562204192487878988888393020692503707483087375482269988814848.0 
-6277438562204192487878988888393020692503707483087375482269988814848.0 
-6277438562204192487878988888393020692503707483087375482269988814848.0 
-6277438562204192487878988888393020692503707483087375482269988814848.0 
-6277438562204192487878988888393020692503707483087375482269988814848.0 
-6277438562204192487878988888393020692503707483087375482269988814848.0 
-6277438562204192487878988888393020692503707483087375482269988814848.0 
-6277438562204192487878988888393020692503707483087375482269988814848.0 
-6277438562204192487878988888393020692503707483087375482269988814848.0 
-6277438562204192487878988888393020692503707483087375482269988814848.0 
-6277438562204192487878988888393020692503707483087375482269988814848.0 
-6277438562204192487878988888393020692503707483087375482269988814848.0 
-6277438562204192487878988888393020692503707483087375482269988814848.0 
-6277438562204192487878988888393020692503707483087375482269988814848.0 
-6277438562204192487878988888393020692503707483087375482269988814848.0 
-6277438562204192487878988888393020692503707483087375482269988814848.0 
-6277438562204192487878988888393020692503707483087375482269988814848.0 
-6277438562204192487878988888393020692503707483087375482269988814848.0 
-6277438562204192487878988888393020692503707483087375482269988814848.0 
-6277438562204192487878988888393020692503707483087375482269988814848.0 
-6277438562204192487878988888393020692503707483087375482269988814848.0 
-6277438562204192487878988888393020692503707483087375482269988814848.0 
-6277438562204192487878988888393020692503707483087375482269988814848.0 
-6277438562204192487878988888393020692503707483087375482269988814848.0 
-6277438562204192487878988888393020692503707483087375482269988814848.0 
-6277438562204192487878988888393020692503707483087375482269988814848.0 
-6277438562204192487878988888393020692503707483087375482269988814848.0 
-6277438562204192487878988888393020692503707483087375482269988814848.0 
-6277438562204192487878988888393020692503707483087375482269988814848.0 
-6277438562204192487878988888393020692503707483087375482269988814848.0 
-6277438562204192487878988888393020692503707483087375482269988814848.0 
-6277438562204192487878988888393020692503707483087375482269988814848.0 
-6277438562204192487878988888393020692503707483087375482269988814848.0 
-6277438562204192487878988888393020692503707483087375482269988814848.0 
-6277438562204192487878988888393020692503707483087375482269988814848.0 
-6277438562204192487878988888393020692503707483087375482269988814848.0 
-6277438562204192487878988888393020692503707483087375482269988814848.0 
-6277438562204192487878988888393020692503707483087375482269988814848.0 
-6277438562204192487878988888393020692503707483087375482269988814848.0 
-6277438562204192487878988888393020692503707483087375482269988814848.0 
-6277438562204192487878988888393020692503707483087375482269988814848.0 
-6277438562204192487878988888393020692503707483087375482269988814848.0 
-6277438562204192487878988888393020692503707483087375482269988814848.0 
-6277438562204192487878988888393020692503707483087375482269988814848.0 
-6277438562204192487878988888393020692503707483087375482269988814848.0 
-6277438562204192487878988888393020692503707483087375482269988814848.0 
-6277438562204192487878988888393020692503707483087375482269988814848.0 
-6277438562204192487878988888393020692503707483087375482269988814848.0 
-6277438562204192487878988888393020692503707483087375482269988814848.0 
-6277438562204192487878988888393020692503707483087375482269988814848.0 
-6277438562204192487878988888393020692503707483087375482269988814848.0 
-6277438562204192487878988888393020692503707483087375482269988814848.0 
-6277438562204192487878988888393020692503707483087375482269988814848.0 
-6277438562204192487878988888393020692503707483087375482269988814848.0 
-6277438562204192487878988888393020692503707483087375482269988814848.0 
-6277438562204192487878988888393020692503707483087375482269988814848.0 
-6277438562204192487878988888393020692503707483087375482269988814848.0 
-6277438562204192487878988888393020692503707483087375482269988814848.0 
-6277438562204192487878988888393020692503707483087375482269988814848.0 
-6277438562204192487878988888393020692503707483087375482269988814848.0 
-6277438562204192487878988888393020692503707483087375482269988814848.0 
-6277438562204192487878988888393020692503707483087375482269988814848.0 
-6277438562204192487878988888393020692503707483087375482269988814848.0 
-6277438562204192487878988888393020692503707483087375482269988814848.0 
-6277438562204192487878988888393020692503707483087375482269988814848.0 
-6277438562204192487878988888393020692503707483087375482269988814848.0 
-6277438562204192487878988888393020692503707483087375482269988814848.0 
-6277438562204192487878988888393020692503707483087375482269988814848.0 
-6277438562204192487878988888393020692503707483087375482269988814848.0 
-6277438562204192487878988888393020692503707483087375482269988814848.0 
-6277438562204192487878988888393020692503707483087375482269988814848.0 
-6277438562204192487878988888393020692503707483087375482269988814848.0 
-6277438562204192487878988888393020692503707483087375482269988814848.0 
-6277438562204192487878988888393020692503707483087375482269988814848.0 
-6277438562204192487878988888393020692503707483087375482269988814848.0 
-6277438562204192487878988888393020692503707483087375482269988814848.0 
-6277438562204192487878988888393020692503707483087375482269988814848.0 
-6277438562204192487878988888393020692503707483087375482269988814848.0 
-6277438562204192487878988888393020692503707483087375482269988814848.0 
-6277438562204192487878988888393020692503707483087375482269988814848.0 
-6277438562204192487878988888393020692503707483087375482269988814848.0 
-6277438562204192487878988888393020692503707483087375482269988814848.0 
-6277438562204192487878988888393020692503707483087375482269988814848.0 
-6277438562204192487878988888393020692503707483087375482269988814848.0 
-6277438562204192487878988888393020692503707483087375482269988814848.0 
-6277438562204192487878988888393020692503707483087375482269988814848.0 
-6277438562204192487878988888393020692503707483087375482269988814848.0 
-6277438562204192487878988888393020692503707483087375482269988814848.0 
-6277438562204192487878988888393020692503707483087375482269988814848.0 
-6277438562204192487878988888393020692503707483087375482269988814848.0 
-6277438562204192487878988888393020692503707483087375482269988814848.0 
-6277438562204192487878988888393020692503707483087375482269988814848.0 
-6277438562204192487878988888393020692503707483087375482269988814848.0 
-6277438562204192487878988888393020692503707483087375482269988814848.0 
-6277438562204192487878988888393020692503707483087375482269988814848.0 
-6277438562204192487878988888393020692503707483087375482269988814848.0 
-6277438562204192487878988888393020692503707483087375482269988814848.0 
-6277438562204192487878988888393020692503707483087375482269988814848.0 
-6277438562204192487878988888393020692503707483087375482269988814848.0 
-6277438562204192487878988888393020692503707483087375482269988814848.0 
-6277438562204192487878988888393020692503707483087375482269988814848.0 
-6277438562204192487878988888393020692503707483087375482269988814848.0 
-6277438562204192487878988888393020692503707483087375482269988814848.0 
-6277438562204192487878988888393020692503707483087375482269988814848.0 
-6277438562204192487878988888393020692503707483087375482269988814848.0 
-6277438562204192487878988888393020692503707483087375482269988814848.0 
-6277438562204192487878988888393020692503707483087375482269988814848.0 
-6277438562204192487878988888393020692503707483087375482269988814848.0 
-6277438562204192487878988888393020692503707483087375482269988814848.0 
-6277438562204192487878988888393020692503707483087375482269988814848.0 
-6277438562204192487878988888393020692503707483087375482269988814848.0 
-6277438562204192487878988888393020692503707483087375482269988814848.0 
-6277438562204192487878988888393020692503707483087375482269988814848.0 
-6277438562204192487878988888393020692503707483087375482269988814848.0 
-6277438562204192487878988888393020692503707483087375482269988814848.0 
-6277438562204192487878988888393020692503707483087375482269988814848.0 
-6277438562204192487878988888393020692503707483087375482269988814848.0 
-6277438562204192487878988888393020692503707483087375482269988814848.0 
-6277438562204192487878988888393020692503707483087375482269988814848.0 
-6277438562204192487878988888393020692503707483087375482269988814848.0 
-6277438562204192487878988888393020692503707483087375482269988814848.0 
-6277438562204192487878988888393020692503707483087375482269988814848.0 
-6277438562204192487878988888393020692503707483087375482269988814848.0 
-6277438562204192487878988888393020692503707483087375482269988814848.0 
-6277438562204192487878988888393020692503707483087375482269988814848.0 
-6277438562204192487878988888393020692503707483087375482269988814848.0 
-6277438562204192487878988888393020692503707483087375482269988814848.0 
-6277438562204192487878988888393020692503707483087375482269988814848.0 
-6277438562204192487878988888393020692503707483087375482269988814848.0 
-6277438562204192487878988888393020692503707483087375482269988814848.0 
-6277438562204192487878988888393020692503707483087375482269988814848.0 
-6277438562204192487878988888393020692503707483087375482269988814848.0 
-6277438562204192487878988888393020692503707483087375482269988814848.0 
-6277438562204192487878988888393020692503707483087375482269988814848.0 
-6277438562204192487878988888393020692503707483087375482269988814848.0 
-6277438562204192487878988888393020692503707483087375482269988814848.0 
-6277438562204192487878988888393020692503707483087375482269988814848.0 
-6277438562204192487878988888393020692503707483087375482269988814848.0 
-6277438562204192487878988888393020692503707483087375482269988814848.0 
-6277438562204192487878988888393020692503707483087375482269988814848.0 
-6277438562204192487878988888393020692503707483087375482269988814848.0 
-6277438562204192487878988888393020692503707483087375482269988814848.0 
-6277438562204192487878988888393020692503707483087375482269988814848.0 
-6277438562204192487878988888393020692503707483087375482269988814848.0 
-6277438562204192487878988888393020692503707483087375482269988814848.0 
-6277438562204192487878988888393020692503707483087375482269988814848.0 
-6277438562204192487878988888393020692503707483087375482269988814848.0 
-6277438562204192487878988888393020692503707483087375482269988814848.0 
-6277438562204192487878988888393020692503707483087375482269988814848.0 
-6277438562204192487878988888393020692503707483087375482269988814848.0 
-6277438562204192487878988888393020692503707483087375482269988814848.0 
-6277438562204192487878988888393020692503707483087375482269988814848.0 
-6277438562204192487878988888393020692503707483087375482269988814848.0 
-6277438562204192487878988888393020692503707483087375482269988814848.0 
-6277438562204192487878988888393020692503707483087375482269988814848.0 
-6277438562204192487878988888393020692503707483087375482269988814848.0 
-6277438562204192487878988888393020692503707483087375482269988814848.0 
-6277438562204192487878988888393020692503707483087375482269988814848.0 
-6277438562204192487878988888393020692503707483087375482269988814848.0 
-6277438562204192487878988888393020692503707483087375482269988814848.0 
-6277438562204192487878988888393020692503707483087375482269988814848.0 
-6277438562204192487878988888393020692503707483087375482269988814848.0 
-6277438562204192487878988888393020692503707483087375482269988814848.0 
-6277438562204192487878988888393020692503707483087375482269988814848.0 
-6277438562204192487878988888393020692503707483087375482269988814848.0 
-6277438562204192487878988888393020692503707483087375482269988814848.0 
-6277438562204192487878988888393020692503707483087375482269988814848.0 
-6277438562204192487878988888393020692503707483087375482269988814848.0 
-6277438562204192487878988888393020692503707483087375482269988814848.0 
-6277438562204192487878988888393020692503707483087375482269988814848.0 
-6277438562204192487878988888393020692503707483087375482269988814848.0 
-6277438562204192487878988888393020692503707483087375482269988814848.0 
-6277438562204192487878988888393020692503707483087375482269988814848.0 
-6277438562204192487878988888393020692503707483087375482269988814848.0 
-6277438562204192487878988888393020692503707483087375482269988814848.0 
-6277438562204192487878988888393020692503707483087375482269988814848.0 
-6277438562204192487878988888393020692503707483087375482269988814848.0 
-6277438562204192487878988888393020692503707483087375482269988814848.0 
-6277438562204192487878988888393020692503707483087375482269988814848.0 
-6277438562204192487878988888393020692503707483087375482269988814848.0 
-6277438562204192487878988888393020692503707483087375482269988814848.0 
-6277438562204192487878988888393020692503707483087375482269988814848.0 
-6277438562204192487878988888393020692503707483087375482269988814848.0 
-6277438562204192487878988888393020692503707483087375482269988814848.0 
-6277438562204192487878988888393020692503707483087375482269988814848.0 
-6277438562204192487878988888393020692503707483087375482269988814848.0 
-6277438562204192487878988888393020692503707483087375482269988814848.0 
-6277438562204192487878988888393020692503707483087375482269988814848.0 
-6277438562204192487878988888393020692503707483087375482269988814848.0 
-6277438562204192487878988888393020692503707483087375482269988814848.0 
-6277438562204192487878988888393020692503707483087375482269988814848.0 
-6277438562204192487878988888393020692503707483087375482269988814848.0 
-6277438562204192487878988888393020692503707483087375482269988814848.0 
-6277438562204192487878988888393020692503707483087375482269988814848.0 
-6277438562204192487878988888393020692503707483087375482269988814848.0 
-6277438562204192487878988888393020692503707483087375482269988814848.0 
-6277438562204192487878988888393020692503707483087375482269988814848.0 
-6277438562204192487878988888393020692503707483087375482269988814848.0 
-6277438562204192487878988888393020692503707483087375482269988814848.0 
-6277438562204192487878988888393020692503707483087375482269988814848.0 
-6277438562204192487878988888393020692503707483087375482269988814848.0 
-6277438562204192487878988888393020692503707483087375482269988814848.0 
-6277438562204192487878988888393020692503707483087375482269988814848.0 
-6277438562204192487878988888393020692503707483087375482269988814848.0 
-6277438562204192487878988888393020692503707483087375482269988814848.0 
-6277438562204192487878988888393020692503707483087375482269988814848.0 
-6277438562204192487878988888393020692503707483087375482269988814848.0 
-6277438562204192487878988888393020692503707483087375482269988814848.0 
-6277438562204192487878988888393020692503707483087375482269988814848.0 
-6277438562204192487878988888393020692503707483087375482269988814848.0 
-6277438562204192487878988888393020692503707483087375482269988814848.0 
-6277438562204192487878988888393020692503707483087375482269988814848.0 
-6277438562204192487878988888393020692503707483087375482269988814848.0 
-6277438562204192487878988888393020692503707483087375482269988814848.0 
-6277438562204192487878988888393020692503707483087375482269988814848.0 
-6277438562204192487878988888393020692503707483087375482269988814848.0 
-6277438562204192487878988888393020692503707483087375482269988814848.0 
-6277438562204192487878988888393020692503707483087375482269988814848.0 
-6277438562204192487878988888393020692503707483087375482269988814848.0 
-6277438562204192487878988888393020692503707483087375482269988814848.0 
-6277438562204192487878988888393020692503707483087375482269988814848.0 
-6277438562204192487878988888393020692503707483087375482269988814848.0 
-6277438562204192487878988888393020692503707483087375482269988814848.0 
-6277438562204192487878988888393020692503707483087375482269988814848.0 
-6277438562204192487878988888393020692503707483087375482269988814848.0 
-6277438562204192487878988888393020692503707483087375482269988814848.0 
-6277438562204192487878988888393020692503707483087375482269988814848.0 
-6277438562204192487878988888393020692503707483087375482269988814848.0 
-6277438562204192487878988888393020692503707483087375482269988814848.0 
-6277438562204192487878988888393020692503707483087375482269988814848.0 
-6277438562204192487878988888393020692503707483087375482269988814848.0 
-6277438562204192487878988888393020692503707483087375482269988814848.0 
-6277438562204192487878988888393020692503707483087375482269988814848.0 
-6277438562204192487878988888393020692503707483087375482269988814848.0 
-6277438562204192487878988888393020692503707483087375482269988814848.0 
-6277438562204192487878988888393020692503707483087375482269988814848.0 
-6277438562204192487878988888393020692503707483087375482269988814848.0 
-6277438562204192487878988888393020692503707483087375482269988814848.0 
-6277438562204192487878988888393020692503707483087375482269988814848.0 
-6277438562204192487878988888393020692503707483087375482269988814848.0 
-6277438562204192487878988888393020692503707483087375482269988814848.0 
-6277438562204192487878988888393020692503707483087375482269988814848.0 
-6277438562204192487878988888393020692503707483087375482269988814848.0 
-6277438562204192487878988888393020692503707483087375482269988814848.0 
-6277438562204192487878988888393020692503707483087375482269988814848.0 
-6277438562204192487878988888393020692503707483087375482269988814848.0 
-6277438562204192487878988888393020692503707483087375482269988814848.0 
-6277438562204192487878988888393020692503707483087375482269988814848.0 
-6277438562204192487878988888393020692503707483087375482269988814848.0 
-6277438562204192487878988888393020692503707483087375482269988814848.0 
-6277438562204192487878988888393020692503707483087375482269988814848.0 
-6277438562204192487878988888393020692503707483087375482269988814848.0 
-6277438562204192487878988888393020692503707483087375482269988814848.0 
-6277438562204192487878988888393020692503707483087375482269988814848.0 
-6277438562204192487878988888393020692503707483087375482269988814848.0 
-6277438562204192487878988888393020692503707483087375482269988814848.0 
-6277438562204192487878988888393020692503707483087375482269988814848.0 
-6277438562204192487878988888393020692503707483087375482269988814848.0 
-6277438562204192487878988888393020692503707483087375482269988814848.0 
-6277438562204192487878988888393020692503707483087375482269988814848.0 
-6277438562204192487878988888393020692503707483087375482269988814848.0 
-6277438562204192487878988888393020692503707483087375482269988814848.0 
-6277438562204192487878988888393020692503707483087375482269988814848.0 
-6277438562204192487878988888393020692503707483087375482269988814848.0 
-6277438